{
  "href": "https://dummy/v1/playlists/3306/tracks?offset=0&limit=2",
  "items": [
    {
      "added_at": "2020-07-28T09:01:50Z",
      "added_by": {
        "external_urls": {
          "spotify": "https://open.spotify.com/user/user_id"
        },
        "href": "https://api.spotify.com/v1/users/user_id",
        "id": "user_id",
        "type": "user",
        "uri": "spotify:user:user_id"
      },
      "is_local": false,
      "primary_color": null,
      "track": {
        "album": {
          "album_type": "single",
          "artists": [
            {
              "external_urls": {
                "spotify": "https://open.spotify.com/artist/6iQqWcDg92kre5ykFLwqD8"
              },
              "href": "https://api.spotify.com/v1/artists/6iQqWcDg92kre5ykFLwqD8",
              "id": "6iQqWcDg92kre5ykFLwqD8",
              "name": "Daite Tank (!)",
              "type": "artist",
              "uri": "spotify:artist:6iQqWcDg92kre5ykFLwqD8"
            }
          ],
          "available_markets": [],
          "external_urls": {
            "spotify": "https://open.spotify.com/album/6Ju5i8sVZ3IGP5jHZrimGE"
          },
          "href": "https://api.spotify.com/v1/albums/6Ju5i8sVZ3IGP5jHZrimGE",
          "id": "6Ju5i8sVZ3IGP5jHZrimGE",
          "images": [
            {
              "height": 640,
              "url": "https://i.scdn.co/image/ab67616d0000b273ac0c10b76fe3eaf48cc5a6c8",
              "width": 640
            },
            {
              "height": 300,
              "url": "https://i.scdn.co/image/ab67616d00001e02ac0c10b76fe3eaf48cc5a6c8",
              "width": 300
            },
            {
              "height": 64,
              "url": "https://i.scdn.co/image/ab67616d00004851ac0c10b76fe3eaf48cc5a6c8",
              "width": 64
            }
          ],
          "name": "Маленький",
          "release_date": "2013-01-07",
          "release_date_precision": "day",
          "total_tracks": 1,
          "type": "album",
          "uri": "spotify:album:6Ju5i8sVZ3IGP5jHZrimGE"
        },
        "artists": [
          {
            "external_urls": {
              "spotify": "https://open.spotify.com/artist/6iQqWcDg92kre5ykFLwqD8"
            },
            "href": "https://api.spotify.com/v1/artists/6iQqWcDg92kre5ykFLwqD8",
            "id": "6iQqWcDg92kre5ykFLwqD8",
            "name": "Daite Tank (!)",
            "type": "artist",
            "uri": "spotify:artist:6iQqWcDg92kre5ykFLwqD8"
          }
        ],
        "available_markets": [],
        "disc_number": 1,
        "duration_ms": 244784,
        "episode": false,
        "explicit": false,
        "external_ids": {
          "isrc": "AEA0D1903085"
        },
        "external_urls": {
          "spotify": "https://open.spotify.com/track/6k88pXmtCBkXbZHvxYhekb"
        },
        "href": "https://api.spotify.com/v1/tracks/6k88pXmtCBkXbZHvxYhekb",
        "id": "6k88pXmtCBkXbZHvxYhekb",
        "is_local": false,
        "name": "Маленький",
        "popularity": 40,
        "preview_url": "https://p.scdn.co/mp3-preview/69a96bd9b7431f3f3c09944688996326d4d76287?cid=5c58bbc856934937b610a710aaf07219",
        "track": true,
        "track_number": 1,
        "type": "track",
        "uri": "spotify:track:6k88pXmtCBkXbZHvxYhekb"
      },
      "video_thumbnail": {
        "url": null
      }
    },
    {
      "added_at": "2020-07-28T09:01:50Z",
      "added_by": {
        "external_urls": {
          "spotify": "https://open.spotify.com/user/user_id"
        },
        "href": "https://api.spotify.com/v1/users/user_id",
        "id": "user_id",
        "type": "user",
        "uri": "spotify:user:user_id"
      },
      "is_local": false,
      "primary_color": null,
      "track": {
        "album": {
          "album_type": "album",
          "artists": [
            {
              "external_urls": {
                "spotify": "https://open.spotify.com/artist/1NPnXlXdEfr5ZxhEDsFevM"
              },
              "href": "https://api.spotify.com/v1/artists/1NPnXlXdEfr5ZxhEDsFevM",
              "id": "1NPnXlXdEfr5ZxhEDsFevM",
              "name": "Raphaël",
              "type": "artist",
              "uri": "spotify:artist:1NPnXlXdEfr5ZxhEDsFevM"
            }
          ],
          "available_markets": [],
          "external_urls": {
            "spotify": "https://open.spotify.com/album/5TbficEf6NnMBJP5rUwuN6"
          },
          "href": "https://api.spotify.com/v1/albums/5TbficEf6NnMBJP5rUwuN6",
          "id": "5TbficEf6NnMBJP5rUwuN6",
          "images": [
            {
              "height": 640,
              "url": "https://i.scdn.co/image/ab67616d0000b273667d0224b446ce8e4f7d9b37",
              "width": 640
            },
            {
              "height": 300,
              "url": "https://i.scdn.co/image/ab67616d00001e02667d0224b446ce8e4f7d9b37",
              "width": 300
            },
            {
              "height": 64,
              "url": "https://i.scdn.co/image/ab67616d00004851667d0224b446ce8e4f7d9b37",
              "width": 64
            }
          ],
          "name": "caravane",
          "release_date": "2005-09-09",
          "release_date_precision": "day",
          "total_tracks": 11,
          "type": "album",
          "uri": "spotify:album:5TbficEf6NnMBJP5rUwuN6"
        },
        "artists": [
          {
            "external_urls": {
              "spotify": "https://open.spotify.com/artist/1NPnXlXdEfr5ZxhEDsFevM"
            },
            "href": "https://api.spotify.com/v1/artists/1NPnXlXdEfr5ZxhEDsFevM",
            "id": "1NPnXlXdEfr5ZxhEDsFevM",
            "name": "Raphaël",
            "type": "artist",
            "uri": "spotify:artist:1NPnXlXdEfr5ZxhEDsFevM"
          }
        ],
        "available_markets": [],
        "disc_number": 1,
        "duration_ms": 206920,
        "episode": false,
        "explicit": false,
        "external_ids": {
          "isrc": "FRZ110400586"
        },
        "external_urls": {
          "spotify": "https://open.spotify.com/track/2UXjdnCvgGGIXLrAwCVVQT"
        },
        "href": "https://api.spotify.com/v1/tracks/2UXjdnCvgGGIXLrAwCVVQT",
        "id": "2UXjdnCvgGGIXLrAwCVVQT",
        "is_local": false,
        "name": "Caravane",
        "popularity": 59,
        "preview_url": "https://p.scdn.co/mp3-preview/4bf483c614f6df933ac38359efbe30ea89d1ac21?cid=5c58bbc856934937b610a710aaf07219",
        "track": true,
        "track_number": 1,
        "type": "track",
        "uri": "spotify:track:2UXjdnCvgGGIXLrAwCVVQT"
      },
      "video_thumbnail": {
        "url": null
      }
    }
  ],
  "limit": 2,
  "next": "https://dummy/v1/playlists/3306/tracks?offset=2&limit=2",
  "offset": 0,
  "previous": null,
  "total": 4
}
